UTC,Q_in
2013-01-01 01:00:00,1.50
2013-01-02 01:00:00,1.95
2013-01-03 01:00:00,2.55
2013-01-04 01:00:00,3.30
2013-01-05 01:00:00,4.35
2013-01-06 01:00:00,5.55
2013-01-07 01:00:00,7.20
2013-01-08 01:00:00,5.55
2013-01-09 01:00:00,4.35
2013-01-10 01:00:00,3.30
2013-01-11 01:00:00,2.55
2013-01-12 01:00:00,1.95
